

================Start=============== 



1



================End =============== 



================Start=============== 



2



================End =============== 



================Start=============== 



1



================End =============== 



================Start=============== 



1



================End =============== 

